GPGB955 GROUP PROJECT-HR Analytics Module Retrofit
…
UnitTurnover <- 
  bind_rows( (UnitTurnover2021 %>% mutate(Year = 2021)), (UnitTurnover2022 %>% mutate(Year = 2022)) ) %>% 
  select(Unit, UnitTurnoverRate, UnitTurnoverRate, Year)
  
UnitTurnover

# A tibble: 290 × 3
    Unit UnitTurnoverRate  Year
   <dbl>            <dbl> <dbl>
 1     1            0.710  2021
 2     2            0.885  2021
 3     3            0.757  2021
 4     4            0.729  2021
 5     5            0.613  2021
 6     6            0.913  2021
 7     7            0.709  2021
 8     8            0.849  2021
 9     9            0.707  2021
10    10            0.777  2021
# … with 280 more rows
…
